{
	"version": "2",
	"templates": [{
			"type": 1,
			"title": "Registry",
			"description": "Docker image registry",
			"categories": [
				"docker"
			],
			"platform": "linux",
			"logo": "https://portainer-io-assets.sfo2.digitaloceanspaces.com/logos/registry.png",
			"image": "registry:latest",
			"ports": [
				"5000/tcp"
			],
			"volumes": [{
				"container": "/var/lib/registry"
			}]
		},
		
	{
	  "type": 3,
	  "title": "VaultWarden",
	  "description": "Gestion et stockages de secrets",
	  "note": "<p>Site de l'application : <a href=\"https:\/\/vaultproject.io\/\" target=\"_blank\" rel=\"noopener\">Vaultproject.io<\/a>",
	  "categories": [
		  "SelfHosting",
		  "Drackorr"
	  ],
	  "platform": "linux",
	  "logo": "https://www.pngkey.com/png/detail/232-2321777_vault-logo-hashicorp-vault-icon.png",
	  "repository": {
		  "url": "https://gitlab.com/Drackorr/docker-compose-collection",
		  "stackfile": "vaultwarden.yml"
	  },
	  "env": [{
		  "name": "SERVICE",
		  "label": "Nom du service"
		  },
		  {
		  "name": "DATA_LOCATION",
		  "label": "Localisation des données",
		  "description": "exemple /apps/'service'"
		  }
		  ]

}
]
}